{
  "_schemaVersion": "1.0.0",
  "TTEST":
  {
     "inputs":
     [
        {"name":"what", "kind":"required", "type":["choices={'id','errorflag','verbose','maxdisp','help','print','tellme','version'}"], "purpose":"Query and set values"}
     ]
  },
  
  "TTEST":
  {
     "inputs":
     [
        {"name":"what", "kind":"required", "type":["choices={'uninstall'}"], "purpose":"Uninstall TTESTs"}
     ]
  },
  
  "TTEST":
  {
     "inputs":
     [
        {"name":"what", "kind":"required", "type":["choices={'install'}"], "purpose":"Install TTESTs"},
        {"name":"option", "kind":"ordered", "type":["choices={'path','experimental','unatttended','verbose','-path','-experimental','-unatttended','-verbose','v','y'}"], "purpose":"Options"}
     ]
  },
  
  "TTEST":
  {
     "inputs":
     [
        {"name":"what", "kind":"required", "type":["choices={'path'}"], "purpose":"Add or remove TTEST overloads from the path"},
        {"name":"option", "kind":"ordered", "type":["choices={'on','off','warning','debug','input','path'}"], "purpose":"Options"},
        {"name":"option", "kind":"ordered", "type":["choices={'on','off'}"], "purpose":"Options."}
     ]
  },
  
  "TTEST":
  {
     "inputs":
     [
        {"name":"what", "kind":"required", "type":["choices={'init'}"], "purpose":"Create environment for test suite"},
        {"name":"what", "kind":"ordered", "type":["choices={'-hard','-soft','-last'}"], "purpose":"Create environment for test suite"}
     ]
  },
  
  "TTEST":
  {
     "inputs":
     [
        {"name":"what", "kind":"required", "type":["choices={'clear'}"], "purpose":"Clear stored data of TTEST of current test environement"},
        {"name":"what", "kind":"ordered", "type":["choices={'all','var'}"], "purpose":"What do clear"}
     ]
  },
  
  "TTEST":
  {
     "inputs":
     [
        {"name":"what", "kind":"required", "type":["choices={'clearvar'}"], "purpose":"Clear stored user data of TTEST of current test environement"}
     ]
  },
  
  "TTEST":
  {
     "inputs":
     [
        {"name":"what", "kind":"required", "type":["choices={'var'}"], "purpose":"Store user data of TTEST in current test environement"}
     ]
  }
}
