{
  "_schemaVersion": "1.0.0",
  "runttests":
  {
     "inputs":
     [
        {"name":"subfolder", "kind":"ordered", "type":["choices={'subfolder'}"], "purpose":"Flag whether do a recursive search of unit tests"},
        {"name":"testtype", "kind":"ordered", "type":["choices={'test','doctest'}"], "purpose":"Specify type of testing"},
        {"name":"filename", "kind":"ordered", "type":["matlabpathfile=*.m"], "repeating":true, "purpose":"Filename patterns"}
     ]
  }
}
